mac_address,latitude,longitude,level,cost,battery_percentage,date_time
07D3,22.31162,39.09822,3,22,79,2013-03-18 17:32:31
07D7,22.31162,39.098,4,13,92,2013-03-26 11:57:10
07DF,22.31165,39.0976,1,999,0,2013-03-21 05:08:59
07E2,22.31148,39.097983,3,999,56,2013-03-31 17:57:22
07E8,22.311227,39.099901,1,20,67,2013-04-26 03:42:05
07EB,22.311361,39.09954,1,21,64,2013-04-26 03:43:02
081C,22.31215,39.100995,2,999,0,2013-04-10 04:31:00
081C,22.31215,39.100995,2,999,0,2013-04-10 04:31:00
083F,22.31162,39.0987,3,58,82,2013-04-05 08:47:49
085A,22.311635,39.09972,1,27,53,2013-04-26 03:43:14
0863,22.31148,39.09842,4,13,86,2013-04-23 11:03:06
0865,22.31162,39.099778,1,20,66,2013-04-26 03:42:23
0872,22.31218,39.10099,1,38,37,2013-04-26 03:26:18
0897,22.311345,39.10029,2,999,0,2013-04-02 03:42:05
0897,22.311345,39.10029,2,999,0,2013-04-02 03:42:05
399B,22.31133,39.10016,1,38,35,2013-03-01 05:32:34
39F4,22.311247,39.099218,2,11,91,2013-04-24 13:24:12
3A02,22.311257,39.099659,1,23,60,2013-04-26 03:43:00
3A08,22.3113,39.0996,1,12,79,2013-04-22 21:37:38
3A0E,22.31248,39.10133,2,38,62,2013-03-17 03:46:32
3A13,22.31138,39.09891,1,18,69,2013-04-22 21:38:30
3A20,22.31142,39.09867,3,15,75,2013-04-26 03:42:24
3A21,22.311379,39.09932,2,13,89,2013-04-11 12:26:39
6F4B,22.31142,39.09872,3,25,58,2013-04-26 03:34:03
6F51,22.31162,39.09865,4,30,76,2013-04-15 01:47:04
6F52,22.31148,39.0982,3,999,3,2013-02-27 15:09:03
6F57,22.31173,39.10032,1,39,33,2013-04-26 03:41:59
6F5E,22.31195,39.10073,1,4,93,2013-04-24 13:32:00
6F69,22.312745,39.10162,1,6,91,2013-03-12 16:06:36
9CE6,22.311625,39.1001,1,27,54,2013-04-26 03:42:15
AA95,22.311359,39.0995,1,7,89,2013-04-24 13:35:06
AAA8,22.311237,39.099931,1,28,51,2013-04-26 03:45:04
AAAF,22.311302,39.100025,1,11,82,2013-04-26 03:45:33
AAC4,22.31157,39.10054,1,7,89,2013-04-24 13:01:27
AAD7,22.31239,39.101225,2,21,66,2013-04-26 03:24:44
AAD9,22.31239,39.1011,3,44,31,2013-02-27 14:12:02
